…
CREATE TABLE prefecture AS SELECT * FROM ST_Read('prefecture.geojson');

WITH bounds AS (
  SELECT ST_Extent(ST_MakeEnvelope(122, 20, 154, 46)) AS b
)
SELECT
  name,
  ST_Hilbert(geom, (SELECT b FROM bounds)) AS hilbert_index
FROM prefecture
ORDER BY hilbert_index DESC;

┌──────────┬───────────────┐
│   name   │ hilbert_index │
│ varchar  │    uint32     │
├──────────┼───────────────┤
│ 北海道   │    2610209600 │
│ 青森県   │    2446149408 │
│ 岩手県   │    2437809110 │
│ 秋田県   │    2433158149 │
│ 新潟県   │    2397555018 │
│ 群馬県   │    2389472842 │
│ 栃木県   │    2387357905 │
│ 福島県   │    2378561404 │
│ 茨城県   │    2376528597 │
│ 山形県   │    2358893222 │
│ 宮城県   │    2357525002 │
│ 千葉県   │    2185530984 │
│ 神奈川県 │    2178129160 │
│ 埼玉県   │    2174581310 │
│ 東京都   │    2173293723 │
│ 山梨県   │    2172160600 │
│ 長野県   │    2169822273 │
│ 静岡県   │    2167859539 │
│ 三重県   │    2136066287 │
│ 愛知県   │    2128867184 │
│   ·      │         ·     │
│   ·      │         ·     │
│   ·      │         ·     │
│ 奈良県   │    2091252816 │
│ 和歌山県 │    2089862587 │
│ 高知県   │    2078347388 │
│ 香川県   │    2075111694 │
│ 広島県   │    2070326293 │
│ 愛媛県   │    2066155682 │
│ 大分県   │    2060012896 │
│ 佐賀県   │    2057782560 │
│ 福岡県   │    2055865975 │
│ 山口県   │    2047532265 │
│ 島根県   │    2022068621 │
│ 岡山県   │    2018649279 │
│ 鳥取県   │    2017596435 │
│ 石川県   │    1905076365 │
│ 富山県   │    1902207763 │
│ 長崎県   │    1165215354 │
│ 熊本県   │     801850623 │
│ 宮崎県   │     795981768 │
│ 鹿児島県 │     783015464 │
│ 沖縄県   │     113487712 │
├──────────┴───────────────┤
│    47 rows (40 shown)    │
└──────────────────────────┘
```
…
    SELECT 122.0 AS minx, 20.0 AS miny,
           154.0 AS maxx, 46.0 AS maxy
)
SELECT
  name,
  morton_encode([
    ST_X(ST_Centroid(geom)) - bounds.minx
         / (bounds.maxx - bounds.minx) * 65535,
    ST_Y(ST_Centroid(geom)) - bounds.miny
         / (bounds.maxy - bounds.miny) * 65535
  ]::integer[2]) AS zcode
FROM prefecture, bounds
ORDER BY zcode DESC;

┌──────────┬──────────────────────┐
│   name   │        zcode         │
│ varchar  │        uint64        │
├──────────┼──────────────────────┤
│ 北海道   │ 18446744026721128970 │
│ 青森県   │ 18446744026721126227 │
│ 岩手県   │ 18446744026721126226 │
│ 秋田県   │ 18446744026721126224 │
│ 宮城県   │ 18446744026721126215 │
│ 山形県   │ 18446744026721126213 │
│ 福島県   │ 18446744026721126212 │
│ 茨城県   │ 18446744026721126209 │
│ 栃木県   │ 18446744026721126209 │
│ 千葉県   │ 18446744026721126208 │
│ 新潟県   │ 18446744026721125870 │
│ 群馬県   │ 18446744026721125867 │
│ 埼玉県   │ 18446744026721125866 │
│ 東京都   │ 18446744026721125866 │
│ 神奈川県 │ 18446744026721125866 │
│ 長野県   │ 18446744026721125865 │
│ 山梨県   │ 18446744026721125864 │
│ 富山県   │ 18446744026721125859 │
│ 石川県   │ 18446744026721125859 │
│ 岐阜県   │ 18446744026721125858 │
│   ·      │           ·          │
│   ·      │           ·          │
│   ·      │           ·          │
│ 愛知県   │ 18446744026721125815 │
│ 三重県   │ 18446744026721125813 │
│ 奈良県   │ 18446744026721125813 │
│ 大阪府   │ 18446744026721125791 │
│ 和歌山県 │ 18446744026721125790 │
│ 岡山県   │ 18446744026721125789 │
│ 香川県   │ 18446744026721125789 │
│ 徳島県   │ 18446744026721125788 │
│ 広島県   │ 18446744026721125783 │
│ 愛媛県   │ 18446744026721125782 │
│ 高知県   │ 18446744026721125782 │
│ 山口県   │ 18446744026721125695 │
│ 大分県   │ 18446744026721125694 │
│ 福岡県   │ 18446744026721125692 │
│ 佐賀県   │ 18446744026721125692 │
│ 熊本県   │ 18446744026721125691 │
│ 宮崎県   │ 18446744026721125691 │
│ 鹿児島県 │ 18446744026721125688 │
│ 長崎県   │ 18446744026721125686 │
│ 沖縄県   │ 18446744026721125470 │
├──────────┴──────────────────────┤
│ 47 rows (40 shown)    2 columns │
└─────────────────────────────────┘
```
…
